/home/aron/Documents/Projects/workspace/ds_1_2/src/main/java/utcn/ds/aron/dao/UserDao.java
/home/aron/Documents/Projects/workspace/ds_1_2/src/main/java/utcn/ds/aron/dao/FlightDAO.java
/home/aron/Documents/Projects/workspace/ds_1_2/src/main/java/utcn/ds/aron/entities/Flight.java
/home/aron/Documents/Projects/workspace/ds_1_2/src/main/java/utcn/ds/aron/entities/User.java
/home/aron/Documents/Projects/workspace/ds_1_2/src/main/java/utcn/ds/aron/dao/CityDAO.java
/home/aron/Documents/Projects/workspace/ds_1_2/src/main/java/utcn/ds/aron/servlets/FlightServlet.java
/home/aron/Documents/Projects/workspace/ds_1_2/src/main/java/utcn/ds/aron/entities/City.java
/home/aron/Documents/Projects/workspace/ds_1_2/src/main/java/utcn/ds/aron/servlets/AdminServlet.java
/home/aron/Documents/Projects/workspace/ds_1_2/src/main/java/utcn/ds/aron/servlets/loginServlet.java
